module droneslator

go 1.20

require github.com/urfave/cli/v2 v2.25.5

require (
	github.com/cpuguy83/go-md2man/v2 v2.0.2 // indirect
	github.com/russross/blackfriday/v2 v2.1.0 // indirect
	github.com/xrash/smetrics v0.0.0-20201216005158-039620a65673 // indirect
	golang.org/x/exp v0.0.0-20230522175609-2e198f4a06a1
)
